pRactice corner: Color Analysis in Juices
…
data_reshape_b <- data %>%   
  pivot_longer(cols = starts_with("b"),
               names_to = "days_b",
               values_to = "b_av") %>% 
  select(juices, days_b, b_av)

data_reshaped <- bind_cols(data_reshape_L, data_reshape_a, data_reshape_b) %>% 
  mutate(days = parse_number(days_L)) %>% 
  select(juices...1, days, L_av, a_av, b_av) %>% 
  rename(juices = juices...1)

data_reshaped

# A tibble: 25 x 5
   juices  days  L_av  a_av  b_av
   <chr>  <dbl> <dbl> <dbl> <dbl>
 1 BJ         0  22.4  0.78  1.56
 2 BJ         5  22.9  0.68  1.52
 3 BJ        10  22.3  0.74  1.56
 4 BJ        15  22.4  0.81  1.57
 5 BJ        30  24.2  1.07  0.97
 6 PBJ        0  22.4  0.95  1.67
 7 PBJ        5  22.7  0.82  1.61
 8 PBJ       10  22.3  0.87  1.63
 9 PBJ       15  22.2  0.91  1.64
10 PBJ       30  23.7  1.19  1.21
#  with 15 more rows
…
Adding the initial L* a* b* values to tibble

data_transformed_b<- data_transformed %>% 
  group_by(juices) %>% 
  nest() %>% 
  bind_cols(initial) %>% 
  unnest(cols = c(data))

data_transformed_b

# A tibble: 25 x 12
# Groups:   juices [5]
   juices  days  L_av  a_av  b_av chroma   hue ini_L ini_a ini_b
   <chr>  <dbl> <dbl> <dbl> <dbl>  <dbl> <dbl> <dbl> <dbl> <dbl>
 1 BJ         0  22.4  0.78  1.56   1.74  63.4  22.4  0.78  1.56
 2 BJ         5  22.9  0.68  1.52   1.67  65.9  22.4  0.78  1.56
 3 BJ        10  22.3  0.74  1.56   1.73  64.6  22.4  0.78  1.56
 4 BJ        15  22.4  0.81  1.57   1.77  62.7  22.4  0.78  1.56
 5 BJ        30  24.2  1.07  0.97   1.44  42.2  22.4  0.78  1.56
 6 PBJ        0  22.4  0.95  1.67   1.92  60.4  22.4  0.95  1.67
 7 PBJ        5  22.7  0.82  1.61   1.81  63.0  22.4  0.95  1.67
 8 PBJ       10  22.3  0.87  1.63   1.85  61.9  22.4  0.95  1.67
 9 PBJ       15  22.2  0.91  1.64   1.88  61.0  22.4  0.95  1.67
10 PBJ       30  23.7  1.19  1.21   1.70  45.5  22.4  0.95  1.67
#  with 15 more rows, and 2 more variables: ini_chroma <dbl>,
#   ini_hue <dbl>
…
data_viz_long <- data_transformed_c %>% 
  mutate(delta_L = L_av - ini_L,
         delta_a = a_av - ini_a,
         delta_b = b_av - ini_b,
         delta_chroma = chroma - ini_chroma,
         delta_hue = hue - ini_hue) %>% 
  select(juices, days, L_av:delta_hue) %>% 
  pivot_longer(cols = c(L_av:delta_hue),
               names_to = "parameters",
               values_to = "readings")

data_viz_long

# A tibble: 400 x 4
   juices  days parameters readings
   <chr>  <dbl> <chr>         <dbl>
 1 BJ         0 L_av          22.4 
 2 BJ         0 a_av           0.78
 3 BJ         0 b_av           1.56
 4 BJ         0 chroma         1.74
 5 BJ         0 hue           63.4 
 6 BJ         0 ini_L         22.4 
 7 BJ         0 ini_a          0.78
 8 BJ         0 ini_b          1.56
 9 BJ         0 ini_chroma     1.74
10 BJ         0 ini_hue       63.4 
#  with 390 more rows
…
