practice - y18w30 - horror movies
…
# check that there are no duplicates
data_trans %>% 
  count(movie, release_date, sort = T)

## # A tibble: 3,310 x 3
##    movie                 release_date     n
##    <chr>                 <date>       <int>
##  1 10 Days in a Madhouse 2015-11-11       1
##  2 10,000 B.C.           2008-03-07       1
##  3 102 Dalmatians        2000-11-22       1
##  4 12 Rounds             2009-03-27       1
##  5 12 Years a Slave      2013-10-18       1
##  6 127 Hours             2010-11-05       1
##  7 13 Going On 30        2004-04-23       1
##  8 16 Blocks             2006-03-03       1
##  9 17 Again              2009-04-17       1
## 10 2 Fast 2 Furious      2003-06-06       1
## #  with 3,300 more rows
…
