The Stock Market Data (ISLR2)
…
Smallest p-value is assoicatied with lag1, but the negative coefficient suggests that if the market had a positive return yesterday, then it is less likely to go up today.

However, at a p-value of 0.15, the p-value is still relatively large, and there is no clear evidence of a real association vetween lag1 and direction.

Predict

predict(stock_fit, test_data)

# A tibble: 252 × 1
   .pred_class
   <fct>      
 1 Up         
 2 Up         
 3 Up         
 4 Up         
 5 Down       
 6 Up         
 7 Up         
 8 Up         
 9 Up         
10 Up         
# … with 242 more rows

stock_augment <- 
  augment(stock_fit, test_data) %>% 
  select(year, direction, .pred_class, .pred_Down, .pred_Up)

stock_augment

# A tibble: 252 × 5
    year direction .pred_class .pred_Down .pred_Up
   <dbl> <fct>     <fct>            <dbl>    <dbl>
 1  2005 Down      Up               0.472    0.528
 2  2005 Down      Up               0.484    0.516
 3  2005 Down      Up               0.477    0.523
 4  2005 Up        Up               0.486    0.514
 5  2005 Down      Down             0.502    0.498
 6  2005 Up        Up               0.499    0.501
 7  2005 Down      Up               0.497    0.503
 8  2005 Up        Up               0.490    0.510
 9  2005 Down      Up               0.496    0.504
10  2005 Up        Up               0.489    0.511
# … with 242 more rows
…
stock_fit_update %>% 
  extract_fit_parsnip() %>% 
  tidy()

# A tibble: 3 × 5
  term        estimate std.error statistic p.value
  <chr>          <dbl>     <dbl>     <dbl>   <dbl>
1 (Intercept)   0.0322    0.0634     0.508   0.611
2 lag1         -0.0556    0.0517    -1.08    0.282
3 lag2         -0.0445    0.0517    -0.861   0.389

# predict
predict(stock_fit_update, test_data)

# A tibble: 252 × 1
   .pred_class
   <fct>      
 1 Up         
 2 Up         
 3 Up         
 4 Up         
 5 Up         
 6 Up         
 7 Up         
 8 Up         
 9 Up         
10 Up         
# … with 242 more rows

# augment
stock_augment_update <- 
  augment(stock_fit_update, test_data) %>% 
  select(year, direction, .pred_class, .pred_Down, .pred_Up)

stock_augment_update

# A tibble: 252 × 5
    year direction .pred_class .pred_Down .pred_Up
   <dbl> <fct>     <fct>            <dbl>    <dbl>
 1  2005 Down      Up               0.490    0.510
 2  2005 Down      Up               0.479    0.521
 3  2005 Down      Up               0.467    0.533
 4  2005 Up        Up               0.474    0.526
 5  2005 Down      Up               0.493    0.507
 6  2005 Up        Up               0.494    0.506
 7  2005 Down      Up               0.495    0.505
 8  2005 Up        Up               0.487    0.513
 9  2005 Down      Up               0.491    0.509
10  2005 Up        Up               0.484    0.516
# … with 242 more rows
…
Group means:
            lag1        lag2
Down  0.04279022  0.03389409
Up   -0.03954635 -0.03132544

Coefficients of linear discriminants:
            LD1
lag1 -0.6420190
lag2 -0.5135293

Predict

predict(lda_fit, test_data)

# A tibble: 252 × 1
   .pred_class
   <fct>      
 1 Up         
 2 Up         
 3 Up         
 4 Up         
 5 Up         
 6 Up         
 7 Up         
 8 Up         
 9 Up         
10 Up         
# … with 242 more rows
…
Prior probabilities of groups:
    Down       Up 
0.491984 0.508016 

Group means:
            lag1        lag2
Down  0.04279022  0.03389409
Up   -0.03954635 -0.03132544

Predict

predict(qda_fit, test_data)

# A tibble: 252 × 1
   .pred_class
   <fct>      
 1 Up         
 2 Up         
 3 Up         
 4 Up         
 5 Up         
 6 Up         
 7 Up         
 8 Up         
 9 Up         
10 Up         
# … with 242 more rows
…
