pRactice corner: Iteration with purrr
…
[[3]]
 [1]  8.951252  9.671973  9.780482  9.520685  9.916101 10.088140
 [7]  9.475330 11.045631 10.755672  8.077710

[[4]]
 [1]  98.83447 100.34102 100.06690 100.40858 100.76098 101.69539
 [7]  99.91942 100.75977 100.04051 100.52748

How can you create a single vector that for each column in a data frame indicates whether or not it is a factor?

# function:
diamonds 

# A tibble: 53,940 x 10
   carat cut       color clarity depth table price     x     y     z
   <dbl> <ord>     <ord> <ord>   <dbl> <dbl> <int> <dbl> <dbl> <dbl>
 1  0.23 Ideal     E     SI2      61.5    55   326  3.95  3.98  2.43
 2  0.21 Premium   E     SI1      59.8    61   326  3.89  3.84  2.31
 3  0.23 Good      E     VS1      56.9    65   327  4.05  4.07  2.31
 4  0.29 Premium   I     VS2      62.4    58   334  4.2   4.23  2.63
 5  0.31 Good      J     SI2      63.3    58   335  4.34  4.35  2.75
 6  0.24 Very Good J     VVS2     62.8    57   336  3.94  3.96  2.48
 7  0.24 Very Good I     VVS1     62.3    57   336  3.95  3.98  2.47
 8  0.26 Very Good H     SI1      61.9    55   337  4.07  4.11  2.53
 9  0.22 Fair      E     VS2      65.1    61   337  3.87  3.78  2.49
10  0.23 Very Good H     VS1      59.4    61   338  4     4.05  2.39
#  with 53,930 more rows
…
gapminder_nested

# A tibble: 5 x 2
# Groups:   continent [5]
  continent data              
  <fct>     <list>            
1 Asia      <tibble [396  5]>
2 Europe    <tibble [360  5]>
3 Africa    <tibble [624  5]>
4 Americas  <tibble [300  5]>
5 Oceania   <tibble [24  5]> 

gapminder_nested %>% pluck("data", 1)

# A tibble: 396 x 5
   country      year lifeExp      pop gdpPercap
   <fct>       <int>   <dbl>    <int>     <dbl>
 1 Afghanistan  1952    28.8  8425333      779.
 2 Afghanistan  1957    30.3  9240934      821.
 3 Afghanistan  1962    32.0 10267083      853.
 4 Afghanistan  1967    34.0 11537966      836.
 5 Afghanistan  1972    36.1 13079460      740.
 6 Afghanistan  1977    38.4 14880372      786.
 7 Afghanistan  1982    39.9 12881816      978.
 8 Afghanistan  1987    40.8 13867957      852.
 9 Afghanistan  1992    41.7 16317921      649.
10 Afghanistan  1997    41.8 22227415      635.
#  with 386 more rows
…
