pRactice corner: Tidy Tuesday Series
…
# 172 types of major
cleaned_data %>% 
  select(major) %>% 
  group_by(major) %>% 
  summarise(n = n())

# A tibble: 172 x 2
   major                                     n
   <chr>                                 <int>
 1 Accounting                                1
 2 Actuarial Science                         1
 3 Advertising And Public Relations          1
 4 Aerospace Engineering                     1
 5 Agricultural Economics                    1
 6 Agriculture Production And Management     1
 7 Animal Sciences                           1
 8 Anthropology And Archeology               1
 9 Applied Mathematics                       1
10 Architectural Engineering                 1
#  with 162 more rows
…
                  )) %>% 
  select(year, university, school, degree, degree_recode, employment_rate_ft_perm, 
         gross_monthly_median, gross_mthly_25_percentile, gross_mthly_75_percentile)

# degree <- sg_2018 %>% 
 # count(degree)

# print(degree, n = 115)

sg_2018

# A tibble: 117 x 9
    year university   school   degree   degree_recode employment_rate
   <dbl> <chr>        <chr>    <chr>    <fct>         <chr>           
 1  2018 National Un "Facult bachelo law           92.6            
 2  2018 National Un "Yale-N bachelo science       78.9            
 3  2018 Singapore M "School law (cu law           92.6            
 4  2018 Singapore M "School informa info_sys      97.2            
 5  2018 Singapore M "School law      law           90.8            
 6  2018 Nanyang Tec "Colleg busines bizad         100             
 7  2018 National Un "School bachelo science       93.5            
 8  2018 National Un "School bachelo comsci        95.3            
 9  2018 National Un "School bachelo comsci        91.8            
10  2018 National Un "Facult bachelo healthsci     100             
#  with 107 more rows, and 3 more variables:
#   gross_monthly_median <dbl>, gross_mthly_25_percentile <dbl>,
#   gross_mthly_75_percentile <dbl>
…
