Tidy Tuesday Series
…
What is in each variable?

Brand

# brand, variety, style, country, stars, top 10

# 543 different brands
ramen %>% 
  select(brand) %>% 
  unique()

# A tibble: 543 × 1
   brand          
   <fct>          
 1 Higashimaru    
 2 Single Grain   
 3 Sau Tao        
 4 Sapporo Ichiban
 5 Sichuan Baijia 
 6 Nissin         
 7 Maruchan       
 8 Yamamoto Seifun
 9 Kenko Foods    
10 Acecook        
# … with 533 more rows

# brands with most varieties
ramen %>% 
  group_by(brand) %>% 
  summarise(n = n()) %>% 
  arrange(desc(n))

# A tibble: 543 × 2
   brand               n
   <fct>           <int>
 1 Nissin            477
 2 Maruchan          131
 3 Nongshim          119
 4 Myojo             111
 5 Samyang Foods     103
 6 Paldo              84
 7 Mama               71
 8 Sapporo Ichiban    69
 9 Indomie            56
10 Ottogi             51
# … with 533 more rows
…
# which country are these top 20 brands located?
ramen %>% 
  group_by(brand, country) %>% 
  summarise(n = n()) %>% 
  arrange(desc(n))  # 1 brand can be located in different countries

# A tibble: 623 × 3
# Groups:   brand [543]
   brand         country           n
   <fct>         <fct>         <int>
 1 Nissin        Japan           144
 2 Nissin        United States   115
 3 Samyang Foods South Korea     100
 4 Nissin        Hong Kong        82
 5 Paldo         South Korea      82
 6 Myojo         Japan            77
 7 Maruchan      Japan            65
 8 Nongshim      South Korea      65
 9 Maruchan      United States    64
10 Mama          Thailand         58
# … with 613 more rows
…
# now, look at variety

ramen %>% 
  group_by(variety) %>% 
  summarise(n = n()) %>% 
  arrange(desc(n))

# A tibble: 3,448 × 2
   variety                               n
   <chr>                             <int>
 1 Miso Ramen                            9
 2 Beef                                  7
 3 Chicken                               7
 4 Yakisoba                              7
 5 Artificial Chicken                    6
 6 Vegetable                             6
 7 Artificial Beef Flavor                4
 8 Artificial Spicy Beef                 4
 9 Chicken Flavor                        4
10 Chili Chicken Flavour Noodle Soup     4
# … with 3,438 more rows
…
# 51 different countries
# Japan, USA, South Korea have the most number of products

ramen %>% 
  group_by(country) %>% 
  summarise(n = n()) %>% 
  arrange(desc(n))

# A tibble: 51 × 2
   country           n
   <fct>         <int>
 1 Japan           684
 2 United States   462
 3 South Korea     413
 4 Taiwan          372
 5 China           245
 6 Thailand        212
 7 Malaysia        208
 8 Hong Kong       191
 9 Indonesia       161
10 Singapore       140
# … with 41 more rows

Products from Singapore

# singapore has 140 listed products
 ramen %>% 
  filter(country == "Singapore") %>% 
  arrange(desc(stars))

# A tibble: 140 × 6
   review_number brand    variety                  style country stars
           <dbl> <fct>    <chr>                    <fct> <fct>   <chr>
 1          3446 Prima T… Singapore Black Pepper … Pack  Singap… 5    
 2          3210 Prima T… Singapore Prawn Soup La… Pack  Singap… 5    
 3          3196 Prima T… Singapore Chilli Crab F… Pack  Singap… 5    
 4          3096 Prima T… Singapore Black Pepper … Pack  Singap… 5    
 5          2921 Prima T… Singapore Prawn Soup Wh… Pack  Singap… 5    
 6          2882 Miandom  Tasty Asia Green Curry … Cup   Singap… 5    
 7          2688 KOKA     Silk Laksa Singapura In… Bowl  Singap… 5    
 8          2625 Nissin   Cup Noodles Potato Chip… Pack  Singap… 5    
 9          2618 KOKA     Delight Curry Flavor In… Pack  Singap… 5    
10          2617 Nissin   Cup Noodles Laksa Flavo… Cup   Singap… 5    
# … with 130 more rows

Products from Japan

# Japan has 684 listed products
 ramen %>% 
  filter(country == "Japan") %>% 
  arrange(desc(stars))

# A tibble: 684 × 6
   review_number brand     variety                 style country stars
           <dbl> <fct>     <chr>                   <fct> <fct>   <chr>
 1          3150 Hakubaku  Baby Somen              Pack  Japan   NR   
 2          3149 Hakubaku  Baby Udon               Pack  Japan   NR   
 3          2641 Nanoblock Ramen Bokki             Pack  Japan   NR   
 4          3702 Higashim… Seafood Sara Udon       Pack  Japan   5    
 5          3695 Maruchan  Miyashi Chuka Cold Noo… Pack  Japan   5    
 6          3683 Sapporo … Sekai no Yamachan Phan… Tray  Japan   5    
 7          3557 Nakaki F… Salt Yakisoba           Pack  Japan   5    
 8          3554 Myojo     Vegetable Paitan Tanmen Bowl  Japan   5    
 9          3525 Maruchan  Oshima x Tanaka Shoten… Bowl  Japan   5    
10          3521 Maruchan  Sesame Tan Tan Udon     Bowl  Japan   5    
# … with 674 more rows

Products from Taiwan

# Taiwan has 372 listed products
 ramen %>% 
  filter(country == "Taiwan") %>% 
  arrange(desc(stars))

# A tibble: 372 × 6
   review_number brand         variety             style country stars
           <dbl> <fct>         <chr>               <fct> <fct>   <chr>
 1          3673 Noodles Acco… Fragrant In Origin… Pack  Taiwan  5    
 2          3638 Hi-Lai Foods  Lai Noodle          Pack  Taiwan  5    
 3          3618 PLN Food Co,… Spicy Paste Noodle  Pack  Taiwan  5    
 4          3617 PLN Food Co,… Classic Dry Noodle  Pack  Taiwan  5    
 5          3553 Mom's Dry No… Sichuan Spicy Duck… Box   Taiwan  5    
 6          3523 Little Coupl… Dry Noodle Sesame … Pack  Taiwan  5    
 7          3468 Little Coupl… Dry Noodle - Onion  Pack  Taiwan  5    
 8          3413 Shin Horng    Hon's Dry Noodles … Pack  Taiwan  5    
 9          3392 Wu Mu         Mandashi Mala Spic… Box   Taiwan  5    
10          3390 Eight Field   Spicy Peanut Paste… Pack  Taiwan  5    
# … with 362 more rows

Products from Korea

# Korea has 413 listed products
 ramen %>% 
  filter(country %in% c("South Korea")) %>% 
  arrange(desc(stars))

# A tibble: 413 × 6
   review_number brand     variety               style country   stars
           <dbl> <fct>     <chr>                 <fct> <fct>     <chr>
 1          2548 Ottogi    Plain Instant Noodle… Pack  South Ko… Unra…
 2          2458 Samyang … Sari Ramen            Pack  South Ko… Unra…
 3          3627 Ottogi    Mac & Cheese Spaghet… Bowl  South Ko… 5    
 4          3451 Nongshim  Shin Light Air Dried… Pack  South Ko… 5    
 5          3442 Paldo     Mr Kimchi Stirfried … Bowl  South Ko… 5    
 6          3429 Paldo     Bul Jjamppong         Pack  South Ko… 5    
 7          3427 Samyang … Buldak Light          Pack  South Ko… 5    
 8          3404 Nongshim  Big Gomtang Instant … Bowl  South Ko… 5    
 9          3398 Paldo     King Lid Ramen Noodl… Pack  South Ko… 5    
10          3388 Paldo     Big 3 Instant Ramen … Bowl  South Ko… 5    
# … with 403 more rows
…
glimpse(ramen_cleaned_a) # 3692, removed na

Rows: 3,692
Columns: 6
$ review_number <dbl> 3702, 3701, 3700, 3699, 3698, 3697, 3696, 3695…
$ brand         <fct> "Higashimaru", "Single Grain", "Sau Tao", "Sau…
$ flavor        <chr> "Seafood Sara Udon", "Chongqing Spicy & Sour R…
$ packaging     <fct> Pack, Cup, Pack, Pack, Cup, Cup, Pack, Pack, B…
$ country       <fct> Japan, China, Hong Kong, Hong Kong, Japan, Chi…
$ stars         <dbl> 5.00, 3.50, 5.00, 4.50, 3.50, 4.50, 4.00, 5.00…

ramen_cleaned_a

# A tibble: 3,692 × 6
   review_number brand    flavor               packaging country stars
           <dbl> <fct>    <chr>                <fct>     <fct>   <dbl>
 1          3702 Higashi… Seafood Sara Udon    Pack      Japan    5   
 2          3701 Single … Chongqing Spicy & S… Cup       China    3.5 
 3          3700 Sau Tao  Seafood Flavour Sic… Pack      Hong K…  5   
 4          3699 Sau Tao  Jiangnan Style Nood… Pack      Hong K…  4.5 
 5          3698 Sapporo… CupStar Shio Ramen   Cup       Japan    3.5 
 6          3697 Sichuan… Big Boss Broad Nood… Cup       China    4.5 
 7          3696 Nissin   Top Ramen Masala No… Pack      India    4   
 8          3695 Maruchan Miyashi Chuka Cold … Pack      Japan    5   
 9          3694 Yamamot… Tanukioyaji Super S… Bowl      Japan    3.5 
10          3693 Kenko F… Michio Kawamura Nat… Pack      Japan    3.75
# … with 3,682 more rows
…
data_plot

# A tibble: 277 × 6
   country     brand           count mean_rating min_rating max_rating
   <fct>       <fct>           <int>       <dbl>      <dbl>      <dbl>
 1 Japan       Nissin            144        4.17       1.5           5
 2 South Korea Samyang Foods      99        4.12       0             5
 3 Hong Kong   Nissin             82        4.10       1.75          5
 4 South Korea Paldo              82        4.04       0             5
 5 Japan       Myojo              77        3.77       0             5
 6 Japan       Maruchan           65        3.85       0             5
 7 South Korea Nongshim           65        4.03       0.5           5
 8 Japan       Sapporo Ichiban    55        3.76       2             5
 9 Indonesia   Indomie            54        4.15       1.5           5
10 Hong Kong   Sau Tao            45        4.12       1.25          5
# … with 267 more rows
…
Wordcloud for popular flavors

ramen_cleaned_a %>% 
  select(flavor) %>% 
  distinct()

# A tibble: 3,439 × 1
   flavor                                             
   <chr>                                              
 1 Seafood Sara Udon                                  
 2 Chongqing Spicy & Sour Rice Noodles                
 3 Seafood Flavour Sichuan Spicy Noodle               
 4 Jiangnan Style Noodle - Original Flavour           
 5 CupStar Shio Ramen                                 
 6 Big Boss Broad Noodle Chili Oil Flavor (Sour & Hot)
 7 Top Ramen Masala Noodles                           
 8 Miyashi Chuka Cold Noodle                          
 9 Tanukioyaji Super Spicy Mazemen                    
10 Michio Kawamura Nature Ramen Shio                  
# … with 3,429 more rows

ramen_cleaned_a

# A tibble: 3,692 × 6
   review_number brand    flavor               packaging country stars
           <dbl> <fct>    <chr>                <fct>     <fct>   <dbl>
 1          3702 Higashi… Seafood Sara Udon    Pack      Japan    5   
 2          3701 Single … Chongqing Spicy & S… Cup       China    3.5 
 3          3700 Sau Tao  Seafood Flavour Sic… Pack      Hong K…  5   
 4          3699 Sau Tao  Jiangnan Style Nood… Pack      Hong K…  4.5 
 5          3698 Sapporo… CupStar Shio Ramen   Cup       Japan    3.5 
 6          3697 Sichuan… Big Boss Broad Nood… Cup       China    4.5 
 7          3696 Nissin   Top Ramen Masala No… Pack      India    4   
 8          3695 Maruchan Miyashi Chuka Cold … Pack      Japan    5   
 9          3694 Yamamot… Tanukioyaji Super S… Bowl      Japan    3.5 
10          3693 Kenko F… Michio Kawamura Nat… Pack      Japan    3.75
# … with 3,682 more rows
…
tidy_flavor

# A tibble: 923 × 2
   word        n
   <chr>   <int>
 1 chicken   419
 2 spicy     414
 3 beef      314
 4 hot       189
 5 curry     188
 6 rice      178
 7 tom       152
 8 shrimp    151
 9 pork      140
10 seafood   140
# … with 913 more rows
…
tidy_bigrams

# A tibble: 105 × 2
   joined_flv          n
   <chr>           <int>
 1 tom yum           107
 2 hot spicy          63
 3 spicy beef         52
 4 rice vermicelli    47
 5 chow mein          41
 6 spicy chicken      34
 7 white curry        32
 8 tom yam            31
 9 hot sour           28
10 sesame oil         26
# … with 95 more rows
…
