pRactice corner: Relational Data
…
airports: gives information about each airport, identified by the faa airport code

airports

# A tibble: 1,458 x 8
   faa   name                 lat    lon   alt    tz dst   tzone      
   <chr> <chr>              <dbl>  <dbl> <dbl> <dbl> <chr> <chr>      
 1 04G   Lansdowne Airport   41.1  -80.6  1044    -5 A     America/Ne
 2 06A   Moton Field Munic  32.5  -85.7   264    -6 A     America/Ch
 3 06C   Schaumburg Region  42.0  -88.1   801    -6 A     America/Ch
 4 06N   Randall Airport     41.4  -74.4   523    -5 A     America/Ne
 5 09J   Jekyll Island Air  31.1  -81.4    11    -5 A     America/Ne
 6 0A9   Elizabethton Muni  36.4  -82.2  1593    -5 A     America/Ne
 7 0G6   Williams County A  41.5  -84.5   730    -5 A     America/Ne
 8 0G7   Finger Lakes Regi  42.9  -76.8   492    -5 A     America/Ne
 9 0P2   Shoestring Aviati  39.8  -76.6  1000    -5 U     America/Ne
10 0S9   Jefferson County   48.1 -123.    108    -8 A     America/Lo
#  with 1,448 more rows

planes: gives information about each plane, identified by its tail number

planes

# A tibble: 3,322 x 9
   tailnum  year type    manufacturer model engines seats speed engine
   <chr>   <int> <chr>   <chr>        <chr>   <int> <int> <int> <chr> 
 1 N10156   2004 Fixed  EMBRAER      EMB-       2    55    NA Turbo
 2 N102UW   1998 Fixed  AIRBUS INDU A320       2   182    NA Turbo
 3 N103US   1999 Fixed  AIRBUS INDU A320       2   182    NA Turbo
 4 N104UW   1999 Fixed  AIRBUS INDU A320       2   182    NA Turbo
 5 N10575   2002 Fixed  EMBRAER      EMB-       2    55    NA Turbo
 6 N105UW   1999 Fixed  AIRBUS INDU A320       2   182    NA Turbo
 7 N107US   1999 Fixed  AIRBUS INDU A320       2   182    NA Turbo
 8 N108UW   1999 Fixed  AIRBUS INDU A320       2   182    NA Turbo
 9 N109UW   1999 Fixed  AIRBUS INDU A320       2   182    NA Turbo
10 N110UW   1999 Fixed  AIRBUS INDU A320       2   182    NA Turbo
#  with 3,312 more rows

weather: gives the weather at each NYC airport for each hour

weather

# A tibble: 26,115 x 15
   origin  year month   day  hour  temp  dewp humid wind_dir
   <chr>  <int> <int> <int> <int> <dbl> <dbl> <dbl>    <dbl>
 1 EWR     2013     1     1     1  39.0  26.1  59.4      270
 2 EWR     2013     1     1     2  39.0  27.0  61.6      250
 3 EWR     2013     1     1     3  39.0  28.0  64.4      240
 4 EWR     2013     1     1     4  39.9  28.0  62.2      250
 5 EWR     2013     1     1     5  39.0  28.0  64.4      260
 6 EWR     2013     1     1     6  37.9  28.0  67.2      240
 7 EWR     2013     1     1     7  39.0  28.0  64.4      240
 8 EWR     2013     1     1     8  39.9  28.0  62.2      250
 9 EWR     2013     1     1     9  39.9  28.0  62.2      260
10 EWR     2013     1     1    10  41    28.0  59.6      260
#  with 26,105 more rows, and 6 more variables: wind_speed <dbl>,
#   wind_gust <dbl>, precip <dbl>, pressure <dbl>, visib <dbl>,
#   time_hour <dttm>
…
Keys

Add a surrogate key to flights

flights

# A tibble: 336,776 x 19
    year month   day dep_time sched_dep_time dep_delay arr_time
   <int> <int> <int>    <int>          <int>     <dbl>    <int>
 1  2013     1     1      517            515         2      830
 2  2013     1     1      533            529         4      850
 3  2013     1     1      542            540         2      923
 4  2013     1     1      544            545        -1     1004
 5  2013     1     1      554            600        -6      812
 6  2013     1     1      554            558        -4      740
 7  2013     1     1      555            600        -5      913
 8  2013     1     1      557            600        -3      709
 9  2013     1     1      557            600        -3      838
10  2013     1     1      558            600        -2      753
#  with 336,766 more rows, and 12 more variables:
#   sched_arr_time <int>, arr_delay <dbl>, carrier <chr>,
#   flight <int>, tailnum <chr>, origin <chr>, dest <chr>,
#   air_time <dbl>, distance <dbl>, hour <dbl>, minute <dbl>,
#   time_hour <dttm>
…
Add the location of the origin and destination to flights

airport_locations <- airports %>% 
  select(faa, lat, lon)

flights %>% 
  select(year:day, hour, origin, dest) %>% 
  left_join(airport_locations, by = c("origin" = "faa")) %>% 
  left_join(airport_locations, by = c("dest" = "faa"),
            suffix = c("_origin", "_dest"))

# A tibble: 336,776 x 10
    year month   day  hour origin dest  lat_origin lon_origin lat_dest
   <int> <int> <int> <dbl> <chr>  <chr>      <dbl>      <dbl>    <dbl>
 1  2013     1     1     5 EWR    IAH         40.7      -74.2     30.0
 2  2013     1     1     5 LGA    IAH         40.8      -73.9     30.0
 3  2013     1     1     5 JFK    MIA         40.6      -73.8     25.8
 4  2013     1     1     5 JFK    BQN         40.6      -73.8     NA  
 5  2013     1     1     6 LGA    ATL         40.8      -73.9     33.6
 6  2013     1     1     5 EWR    ORD         40.7      -74.2     42.0
 7  2013     1     1     6 EWR    FLL         40.7      -74.2     26.1
 8  2013     1     1     6 LGA    IAD         40.8      -73.9     38.9
 9  2013     1     1     6 JFK    MCO         40.6      -73.8     28.4
10  2013     1     1     6 LGA    ORD         40.8      -73.9     42.0
#  with 336,766 more rows, and 1 more variable: lon_dest <dbl>
…
Filtering Joins

Filter flights to only show flights with planes that have flown at least 100 flights.

flights_gte100 <- flights %>% 
  filter(!is.na(tailnum)) %>% 
  group_by(tailnum) %>% 
  count() %>% 
  filter(n >=100)

flights %>% 
  semi_join(flights_gte100, by = "tailnum")

# A tibble: 228,390 x 19
    year month   day dep_time sched_dep_time dep_delay arr_time
   <int> <int> <int>    <int>          <int>     <dbl>    <int>
 1  2013     1     1      517            515         2      830
 2  2013     1     1      533            529         4      850
 3  2013     1     1      544            545        -1     1004
 4  2013     1     1      554            558        -4      740
 5  2013     1     1      555            600        -5      913
 6  2013     1     1      557            600        -3      709
 7  2013     1     1      557            600        -3      838
 8  2013     1     1      558            600        -2      849
 9  2013     1     1      558            600        -2      853
10  2013     1     1      558            600        -2      923
#  with 228,380 more rows, and 12 more variables:
#   sched_arr_time <int>, arr_delay <dbl>, carrier <chr>,
#   flight <int>, tailnum <chr>, origin <chr>, dest <chr>,
#   air_time <dbl>, distance <dbl>, hour <dbl>, minute <dbl>,
#   time_hour <dttm>

Combine fueleconomy::vehicles and fueleconomy::common to find only records for the most common models

fueleconomy::vehicles %>% 
  semi_join(fueleconomy::common, by = c("make", "model"))

# A tibble: 14,531 x 12
      id make  model   year class  trans drive   cyl displ fuel    hwy
   <dbl> <chr> <chr>  <dbl> <chr>  <chr> <chr> <dbl> <dbl> <chr> <dbl>
 1  1833 Acura Integ  1986 Subco Auto Fron     4   1.6 Regu    28
 2  1834 Acura Integ  1986 Subco Manu Fron     4   1.6 Regu    28
 3  3037 Acura Integ  1987 Subco Auto Fron     4   1.6 Regu    28
 4  3038 Acura Integ  1987 Subco Manu Fron     4   1.6 Regu    28
 5  4183 Acura Integ  1988 Subco Auto Fron     4   1.6 Regu    27
 6  4184 Acura Integ  1988 Subco Manu Fron     4   1.6 Regu    28
 7  5303 Acura Integ  1989 Subco Auto Fron     4   1.6 Regu    27
 8  5304 Acura Integ  1989 Subco Manu Fron     4   1.6 Regu    28
 9  6442 Acura Integ  1990 Subco Auto Fron     4   1.8 Regu    24
10  6443 Acura Integ  1990 Subco Manu Fron     4   1.8 Regu    26
#  with 14,521 more rows, and 1 more variable: cty <dbl>
…
