pRactice corner: Tidy Models - Regression
…
# create grid
pls_grid <- expand.grid(num_comp = seq (from = 1, to = 20, by = 1))

tuned_pls_results <- pls_workflow %>% 
  tune_grid(resamples = gasoline_cv,
            grid = pls_grid,
            metrics = metric_set(mae, rmse, rsq))

(model_results <- tuned_pls_results %>% 
  collect_metrics())

# A tibble: 60 x 7
   num_comp .metric .estimator  mean     n std_err .config            
      <dbl> <chr>   <chr>      <dbl> <int>   <dbl> <chr>              
 1        1 mae     standard   1.15     10 0.122   Preprocessor1_Mode
 2        1 rmse    standard   1.29     10 0.137   Preprocessor1_Mode
 3        1 rsq     standard   0.371    10 0.104   Preprocessor1_Mode
 4        2 mae     standard   0.573    10 0.0745  Preprocessor1_Mode
 5        2 rmse    standard   0.691    10 0.0876  Preprocessor1_Mode
 6        2 rsq     standard   0.716    10 0.0874  Preprocessor1_Mode
 7        3 mae     standard   0.212    10 0.0280  Preprocessor1_Mode
 8        3 rmse    standard   0.259    10 0.0289  Preprocessor1_Mode
 9        3 rsq     standard   0.972    10 0.00967 Preprocessor1_Mode
10        4 mae     standard   0.187    10 0.0177  Preprocessor1_Mode
#  with 50 more rows
…
