Chocolate Ratings
…
}

Soma: A Canadian Chocolate Company

chocolate %>% 
  filter(company_manufacturer == "Soma")

# A tibble: 56 × 10
     ref company_manufacturer company_location review_date
   <dbl> <chr>                <chr>                  <dbl>
 1   377 Soma                 Canada                  2009
 2   387 Soma                 Canada                  2009
 3   377 Soma                 Canada                  2009
 4   387 Soma                 Canada                  2009
 5   387 Soma                 Canada                  2009
 6   387 Soma                 Canada                  2009
 7   607 Soma                 Canada                  2010
 8   676 Soma                 Canada                  2011
 9   676 Soma                 Canada                  2011
10   688 Soma                 Canada                  2011
# … with 46 more rows, and 6 more variables:
#   country_of_bean_origin <chr>,
#   specific_bean_origin_or_bar_name <chr>, cocoa_percent <chr>,
#   ingredients <chr>, most_memorable_characteristics <chr>,
#   rating <dbl>
…
Most common words used to describe chocolate charactistics:

tidy_chocolate <- chocolate_cleaned %>% 
  unnest_tokens(word, most_memorable_characteristics)

tidy_chocolate %>% 
  count(word, sort = T)

# A tibble: 533 × 2
   word        n
   <chr>   <int>
 1 cocoa     407
 2 sweet     304
 3 nutty     271
 4 fruit     265
 5 roasty    227
 6 mild      219
 7 sour      200
 8 earthy    190
 9 creamy    187
10 intense   175
# … with 523 more rows
…
