Tidy Tuesday Series
…
# what countries are not in the map data?
malaria_spread %>% 
  anti_join(map_data("world"), by = c(country = "region"))

# A tibble: 32 x 8
   country          code   Y2000  Y2005  Y2010   Y2015 current  change
   <chr>            <chr>  <dbl>  <dbl>  <dbl>   <dbl>   <dbl>   <dbl>
 1 Congo            COG   0.364  0.350  0.217  0.173   0.173   -0.190 
 2 Cote d'Ivoire    CIV   0.525  0.531  0.446  0.349   0.349   -0.177 
 3 Democratic Repu… COD   0.508  0.525  0.427  0.246   0.246   -0.262 
 4 Early-demograph… <NA>  0.0837 0.0616 0.0475 0.0289  0.0289  -0.0548
 5 East Asia & Pac… <NA>  0.0227 0.0207 0.0201 0.00570 0.00570 -0.0170
 6 East Asia & Pac… <NA>  0.0228 0.0211 0.0205 0.00580 0.00580 -0.0170
 7 East Asia & Pac… <NA>  0.0228 0.0207 0.0202 0.00572 0.00572 -0.0171
 8 Fragile and con… <NA>  0.319  0.305  0.247  0.180   0.180   -0.139 
 9 Heavily indebte… <NA>  0.408  0.326  0.274  0.198   0.198   -0.209 
10 IBRD only        <NA>  0.0355 0.0383 0.0269 0.0152  0.0152  -0.0203
# … with 22 more rows

maps::iso3166 %>% 
  as_tibble()

# A tibble: 269 x 5
   a2    a3    ISOname            mapname           sovereignty       
   <chr> <chr> <chr>              <chr>             <chr>             
 1 AW    ABW   Aruba              Aruba             Netherlands       
 2 AF    AFG   Afghanistan        Afghanistan       Afghanistan       
 3 AO    AGO   Angola             Angola            Angola            
 4 AI    AIA   Anguilla           Anguilla          Anguilla          
 5 AX    ALA   Aland Islands      Finland:Aland Is… Finland           
 6 AL    ALB   Albania            Albania           Albania           
 7 AD    AND   Andorra            Andorra           Andorra           
 8 AE    ARE   United Arab Emira… United Arab Emir… United Arab Emira…
 9 AR    ARG   Argentina          Argentina         Argentina         
10 AM    ARM   Armenia            Armenia           Armenia           
# … with 259 more rows
…
