Tidy Data
…
Case study

# TB dataset broken down by year, country, age, gender , diagnosis method.
who

# A tibble: 7,240 x 60
   country     iso2  iso3   year new_sp_m014 new_sp_m1524 new_sp_m2534
   <chr>       <chr> <chr> <int>       <int>        <int>        <int>
 1 Afghanistan AF    AFG    1980          NA           NA           NA
 2 Afghanistan AF    AFG    1981          NA           NA           NA
 3 Afghanistan AF    AFG    1982          NA           NA           NA
 4 Afghanistan AF    AFG    1983          NA           NA           NA
 5 Afghanistan AF    AFG    1984          NA           NA           NA
 6 Afghanistan AF    AFG    1985          NA           NA           NA
 7 Afghanistan AF    AFG    1986          NA           NA           NA
 8 Afghanistan AF    AFG    1987          NA           NA           NA
 9 Afghanistan AF    AFG    1988          NA           NA           NA
10 Afghanistan AF    AFG    1989          NA           NA           NA
# … with 7,230 more rows, and 53 more variables: new_sp_m3544 <int>,
#   new_sp_m4554 <int>, new_sp_m5564 <int>, new_sp_m65 <int>,
#   new_sp_f014 <int>, new_sp_f1524 <int>, new_sp_f2534 <int>,
#   new_sp_f3544 <int>, new_sp_f4554 <int>, new_sp_f5564 <int>,
#   new_sp_f65 <int>, new_sn_m014 <int>, new_sn_m1524 <int>,
#   new_sn_m2534 <int>, new_sn_m3544 <int>, new_sn_m4554 <int>,
#   new_sn_m5564 <int>, new_sn_m65 <int>, new_sn_f014 <int>,
#   new_sn_f1524 <int>, new_sn_f2534 <int>, new_sn_f3544 <int>,
#   new_sn_f4554 <int>, new_sn_f5564 <int>, new_sn_f65 <int>,
…
