pRactice corner: Meat NIR data
…
Centering and scaling for all_predictors()
No PCA components were extracted.

# prep

meat_pca_prep <- prep(meat_pca_recipe)

# loadings
tidy_pca_loadings <- meat_pca_prep %>% 
  tidy(id = "pca")

tidy_pca_loadings

# A tibble: 10,000 x 4
   terms  value component id   
   <chr>  <dbl> <chr>     <chr>
 1 x1    0.0997 PC1       pca  
 2 x2    0.0997 PC1       pca  
 3 x3    0.0997 PC1       pca  
 4 x4    0.0997 PC1       pca  
 5 x5    0.0997 PC1       pca  
 6 x6    0.0996 PC1       pca  
 7 x7    0.0996 PC1       pca  
 8 x8    0.0997 PC1       pca  
 9 x9    0.0997 PC1       pca  
10 x10   0.0997 PC1       pca  
#  with 9,990 more rows

# bake
meat_pca_bake <- bake(meat_pca_prep, data_meat)
meat_pca_bake # PCA LOADING VECTORS

# A tibble: 215 x 9
   water   fat protein    id    PC1    PC2     PC3      PC4     PC5
   <dbl> <dbl>   <dbl> <int>  <dbl>  <dbl>   <dbl>    <dbl>   <dbl>
 1  60.5  22.5    16.7     1 -4.30  -0.404 -0.137  -0.0939   0.105 
 2  46    40.1    13.5     2  0.998  0.486 -1.20   -0.0169   0.0303
 3  71     8.4    20.5     3 -7.14   1.41   0.155   0.244   -0.0815
 4  72.8   5.9    20.7     4 -1.81   1.15   0.544   0.00581  0.128 
 5  58.3  25.5    15.5     5  0.988 -1.19  -0.0591 -0.0248   0.101 
 6  44    42.7    13.7     6  5.56   0.226 -1.24   -0.0877   0.0470
 7  44    42.7    13.7     7  4.96   0.590 -1.16    0.129   -0.129 
 8  69.3  10.6    19.3     8 -6.31  -0.625  0.166  -0.144    0.0222
 9  61.4  19.9    17.7     9 11.6   -0.354  0.185  -0.269    0.0274
10  61.4  19.9    17.7    10 14.6   -0.274  0.459  -0.0457  -0.111 
#  with 205 more rows
…
PLS regression

Change dataset into a tibble format

Alternatively, another ready-to-use format of date may be imported.

data(meats) # from modeldata package
meats

# A tibble: 215 x 103
   x_001 x_002 x_003 x_004 x_005 x_006 x_007 x_008 x_009 x_010 x_011
   <dbl> <dbl> <dbl> <dbl> <dbl> <dbl> <dbl> <dbl> <dbl> <dbl> <dbl>
 1  2.62  2.62  2.62  2.62  2.62  2.62  2.62  2.62  2.63  2.63  2.63
 2  2.83  2.84  2.84  2.85  2.85  2.86  2.86  2.87  2.87  2.88  2.88
 3  2.58  2.58  2.59  2.59  2.59  2.59  2.59  2.60  2.60  2.60  2.60
 4  2.82  2.82  2.83  2.83  2.83  2.83  2.83  2.84  2.84  2.84  2.84
 5  2.79  2.79  2.79  2.79  2.80  2.80  2.80  2.80  2.81  2.81  2.81
 6  3.01  3.02  3.02  3.03  3.03  3.04  3.04  3.05  3.06  3.06  3.07
 7  2.99  2.99  3.00  3.01  3.01  3.02  3.02  3.03  3.04  3.04  3.05
 8  2.53  2.53  2.53  2.53  2.53  2.53  2.53  2.53  2.54  2.54  2.54
 9  3.27  3.28  3.29  3.29  3.30  3.31  3.31  3.32  3.33  3.33  3.34
10  3.40  3.41  3.41  3.42  3.43  3.43  3.44  3.45  3.46  3.47  3.48
#  with 205 more rows, and 92 more variables: x_012 <dbl>,
#   x_013 <dbl>, x_014 <dbl>, x_015 <dbl>, x_016 <dbl>, x_017 <dbl>,
#   x_018 <dbl>, x_019 <dbl>, x_020 <dbl>, x_021 <dbl>, x_022 <dbl>,
#   x_023 <dbl>, x_024 <dbl>, x_025 <dbl>, x_026 <dbl>, x_027 <dbl>,
#   x_028 <dbl>, x_029 <dbl>, x_030 <dbl>, x_031 <dbl>, x_032 <dbl>,
#   x_033 <dbl>, x_034 <dbl>, x_035 <dbl>, x_036 <dbl>, x_037 <dbl>,
#   x_038 <dbl>, x_039 <dbl>, x_040 <dbl>, x_041 <dbl>, x_042 <dbl>,
#   x_043 <dbl>, x_044 <dbl>, x_045 <dbl>, x_046 <dbl>, x_047 <dbl>,
#   x_048 <dbl>, x_049 <dbl>, x_050 <dbl>, x_051 <dbl>, x_052 <dbl>,
…
tuned_pls1_water_results <- pls_water_workflow %>% 
  tune_grid(
    resamples = folds_pls1,
    grid = pls_1_grid,
    metrics = metric_set(rmse, rsq, mae)
  )

# model results

water_model_results <- tuned_pls1_water_results %>% 
  collect_metrics()

water_model_results

# A tibble: 60 x 7
   num_comp .metric .estimator  mean     n std_err .config            
      <dbl> <chr>   <chr>      <dbl> <int>   <dbl> <chr>              
 1        1 mae     standard   7.40    100  0.113  Preprocessor1_Mode
 2        1 rmse    standard   8.77    100  0.137  Preprocessor1_Mode
 3        1 rsq     standard   0.252   100  0.0162 Preprocessor1_Mode
 4        2 mae     standard   4.78    100  0.0874 Preprocessor1_Mode
 5        2 rmse    standard   6.06    100  0.110  Preprocessor1_Mode
 6        2 rsq     standard   0.657   100  0.0121 Preprocessor1_Mode
 7        3 mae     standard   3.31    100  0.0635 Preprocessor1_Mode
 8        3 rmse    standard   4.10    100  0.0857 Preprocessor1_Mode
 9        3 rsq     standard   0.823   100  0.0102 Preprocessor1_Mode
10        4 mae     standard   2.78    100  0.0439 Preprocessor1_Mode
#  with 50 more rows
…
tuned_pls1_fat_results <- pls_fat_workflow %>% 
  tune_grid(
    resamples = folds_pls1,
    grid = pls_1_grid,
    metrics = metric_set(rmse, rsq, mae)
  )

# model results

fat_model_results <- tuned_pls1_fat_results %>% 
  collect_metrics()

fat_model_results

# A tibble: 60 x 7
   num_comp .metric .estimator   mean     n std_err .config           
      <dbl> <chr>   <chr>       <dbl> <int>   <dbl> <chr>             
 1        1 mae     standard    9.50    100  0.149  Preprocessor1_Mod
 2        1 rmse    standard   11.5     100  0.178  Preprocessor1_Mod
 3        1 rsq     standard    0.223   100  0.0155 Preprocessor1_Mod
 4        2 mae     standard    6.32    100  0.120  Preprocessor1_Mod
 5        2 rmse    standard    8.21    100  0.143  Preprocessor1_Mod
 6        2 rsq     standard    0.617   100  0.0126 Preprocessor1_Mod
 7        3 mae     standard    4.24    100  0.0914 Preprocessor1_Mod
 8        3 rmse    standard    5.43    100  0.133  Preprocessor1_Mod
 9        3 rsq     standard    0.809   100  0.0123 Preprocessor1_Mod
10        4 mae     standard    3.57    100  0.0576 Preprocessor1_Mod
#  with 50 more rows
…
tuned_pls1_protein_results <- pls_protein_workflow %>% 
  tune_grid(
    resamples = folds_pls1,
    grid = pls_1_grid,
    metrics = metric_set(rmse, rsq, mae)
  )

# model results

protein_model_results <- tuned_pls1_protein_results %>% 
  collect_metrics()

protein_model_results

# A tibble: 60 x 7
   num_comp .metric .estimator  mean     n std_err .config            
      <dbl> <chr>   <chr>      <dbl> <int>   <dbl> <chr>              
 1        1 mae     standard   2.54    100  0.0378 Preprocessor1_Mode
 2        1 rmse    standard   2.97    100  0.0395 Preprocessor1_Mode
 3        1 rsq     standard   0.126   100  0.0136 Preprocessor1_Mode
 4        2 mae     standard   1.92    100  0.0345 Preprocessor1_Mode
 5        2 rmse    standard   2.38    100  0.0366 Preprocessor1_Mode
 6        2 rsq     standard   0.406   100  0.0164 Preprocessor1_Mode
 7        3 mae     standard   1.37    100  0.0333 Preprocessor1_Mode
 8        3 rmse    standard   1.84    100  0.0450 Preprocessor1_Mode
 9        3 rsq     standard   0.635   100  0.0170 Preprocessor1_Mode
10        4 mae     standard   1.24    100  0.0255 Preprocessor1_Mode
#  with 50 more rows
…
