pRactice corner: Tidy Tuesday on Coffee Ratings Dataset
…
Understanding the coffee with the highest score:

sensory_with_category %>% 
  select(total_cup_points, classification) %>% 
  arrange(desc(total_cup_points))

# A tibble: 1,338 x 2
   total_cup_points classification   
              <dbl> <chr>            
 1             90.6 Premium Specialty
 2             89.9 Specialty        
 3             89.8 Specialty        
 4             89   Specialty        
 5             88.8 Specialty        
 6             88.8 Specialty        
 7             88.8 Specialty        
 8             88.7 Specialty        
 9             88.4 Specialty        
10             88.2 Specialty        
#  with 1,328 more rows
…
7.08 + 6.83 + 6.25 + 7.42 + 7.25 + 6.75 + 10 + 10  + 6.75 # 68.33

[1] 68.33

It turned out that total cup points is a summation of scores for aroma, flavor, aftertaste, acidity, body, balance, uniformity, clean_cup, sweetness and cupper_points.

country_mean_score <- sensory_by_country %>% 
  group_by(country_of_origin, owner) %>% 
  summarise(mean_score = mean(total_cup_points)) %>% 
  arrange(desc(mean_score)) 

country_mean_score

# A tibble: 350 x 3
# Groups:   country_of_origin [36]
   country_of_origin owner                              mean_score
   <chr>             <chr>                                   <dbl>
 1 Ethiopia          metad plc                                89.8
 2 Guatemala         grounds for health admin                 89.8
 3 Ethiopia          yidnekachew dabessa                      89  
 4 Brazil            ji-ae ahn                                88.8
 5 Peru              hugo valdivia                            88.8
 6 Ethiopia          diamond enterprise plc                   88.2
 7 Ethiopia          mohammed lalo                            88.1
 8 Indonesia         grounds for health admin                 87.4
 9 United States     cqi q coffee sample representative       87.3
10 Mexico            roberto licona franco                    87.2
#  with 340 more rows
…
# A tibble: 6 x 3
# Groups:   variety [6]
  variety        species     n
  <chr>          <chr>   <int>
1 Bourbon        Arabica   226
2 Catuai         Arabica    74
3 Caturra        Arabica   256
4 Hawaiian Kona  Arabica    44
5 Typica         Arabica   211
6 Yellow Bourbon Arabica    35

data_variety %>% 
  count(processing_method) # quite varied

# A tibble: 30 x 3
# Groups:   variety [6]
   variety processing_method             n
   <chr>   <chr>                     <int>
 1 Bourbon Natural / Dry                38
 2 Bourbon Other                         2
 3 Bourbon Pulped natural / honey        2
 4 Bourbon Semi-washed / Semi-pulped    11
 5 Bourbon Washed / Wet                170
 6 Bourbon <NA>                          3
 7 Catuai  Natural / Dry                18
 8 Catuai  Pulped natural / honey        2
 9 Catuai  Semi-washed / Semi-pulped     6
10 Catuai  Washed / Wet                 48
#  with 20 more rows

data_variety %>% 
  ungroup() %>% 
  count(country_of_origin) %>% 
  arrange(desc(n))

# A tibble: 25 x 2
   country_of_origin          n
   <chr>                  <int>
 1 Mexico                   195
 2 Guatemala                157
 3 Colombia                 132
 4 Brazil                    92
 5 Taiwan                    66
 6 Costa Rica                44
 7 Honduras                  44
 8 United States (Hawaii)    44
 9 El Salvador               13
10 Nicaragua                 13
#  with 15 more rows
…
